<?xml version="1.0" encoding="UTF-8" standalone="no"?>
<!-- Created with Inkscape (http://www.inkscape.org/) -->

<svg
   xmlns:dc="http://purl.org/dc/elements/1.1/"
   xmlns:cc="http://creativecommons.org/ns#"
   xmlns:rdf="http://www.w3.org/1999/02/22-rdf-syntax-ns#"
   xmlns:svg="http://www.w3.org/2000/svg"
   xmlns="http://www.w3.org/2000/svg"
   xmlns:sodipodi="http://sodipodi.sourceforge.net/DTD/sodipodi-0.dtd"
   xmlns:inkscape="http://www.inkscape.org/namespaces/inkscape"
   width="210mm"
   height="297mm"
   viewBox="0 0 210 297"
   version="1.1"
   id="svg8"
   inkscape:version="0.92.1 r15371"
   sodipodi:docname="avatar_back_2.svg"
   inkscape:export-filename="/nodes/misc/devel/CheekyTwinsClone/images/avatar_back_2.png"
   inkscape:export-xdpi="250"
   inkscape:export-ydpi="250">
  <defs
     id="defs2">
    <inkscape:path-effect
       effect="spiro"
       id="path-effect4616"
       is_visible="true" />
    <inkscape:path-effect
       effect="skeletal"
       id="path-effect5433"
       is_visible="true"
       pattern="m 41.019921,58.59668 -0.01706,-1.67516 4.065458,-0.0966 c 0.311603,0.484427 0.239055,0.968855 0.05011,1.453282 l -1.926365,0.584619 0.91718,1.500258 c 0.582129,1.470188 0.660058,2.940376 0.684057,4.410564 -0.08172,0.654711 -0.07402,1.354133 -0.760654,1.706389 l -2.405204,0.01616 -0.918448,-1.443402 -2.69421,-0.002 -0.848195,1.620001 -3.077814,-0.123898 c -0.201245,-0.555943 0.614835,-0.926916 1.035669,-1.369752 -0.422947,-0.127175 -0.862044,-0.227433 -1.102241,-0.659192 -0.137202,-1.155081 0.379385,-1.889871 1.119096,-2.481222 l 0.335884,-1.933699 c 1.09345,1.101738 3.186751,1.551911 4.657277,-0.04697"
       copytype="single_stretched"
       prop_scale="0.26458333"
       scale_y_rel="false"
       spacing="0"
       normal_offset="0"
       tang_offset="0"
       prop_units="false"
       vertical_pattern="false"
       fuse_tolerance="0" />
    <inkscape:path-effect
       effect="skeletal"
       id="path-effect5423"
       is_visible="true"
       pattern="m 41.019921,58.59668 -0.01706,-1.67516 4.065458,-0.0966 c 0.311603,0.484427 0.239055,0.968855 0.05011,1.453282 l -1.926365,0.584619 0.91718,1.500258 c 0.582129,1.470188 0.660058,2.940376 0.684057,4.410564 -0.08172,0.654711 -0.07402,1.354133 -0.760654,1.706389 l -2.405204,0.01616 -0.918448,-1.443402 -2.69421,-0.002 -0.848195,1.620001 -3.077814,-0.123898 c -0.201245,-0.555943 0.614835,-0.926916 1.035669,-1.369752 -0.422947,-0.127175 -0.862044,-0.227433 -1.102241,-0.659192 -0.137202,-1.155081 0.379385,-1.889871 1.119096,-2.481222 l 0.335884,-1.933699 c 1.09345,1.101738 3.186751,1.551911 4.657277,-0.04697"
       copytype="single_stretched"
       prop_scale="0.26458333"
       scale_y_rel="false"
       spacing="0"
       normal_offset="0"
       tang_offset="0"
       prop_units="false"
       vertical_pattern="false"
       fuse_tolerance="0" />
    <inkscape:path-effect
       effect="skeletal"
       id="path-effect5413"
       is_visible="true"
       pattern="m 41.019921,58.59668 -0.01706,-1.67516 4.065458,-0.0966 c 0.311603,0.484427 0.239055,0.968855 0.05011,1.453282 l -1.926365,0.584619 0.91718,1.500258 c 0.582129,1.470188 0.660058,2.940376 0.684057,4.410564 -0.08172,0.654711 -0.07402,1.354133 -0.760654,1.706389 l -2.405204,0.01616 -0.918448,-1.443402 -2.69421,-0.002 -0.848195,1.620001 -3.077814,-0.123898 c -0.201245,-0.555943 0.614835,-0.926916 1.035669,-1.369752 -0.422947,-0.127175 -0.862044,-0.227433 -1.102241,-0.659192 -0.137202,-1.155081 0.379385,-1.889871 1.119096,-2.481222 l 0.335884,-1.933699 c 1.09345,1.101738 3.186751,1.551911 4.657277,-0.04697"
       copytype="single_stretched"
       prop_scale="0.26458333"
       scale_y_rel="false"
       spacing="0"
       normal_offset="0"
       tang_offset="0"
       prop_units="false"
       vertical_pattern="false"
       fuse_tolerance="0" />
    <inkscape:path-effect
       effect="skeletal"
       id="path-effect5378"
       is_visible="true"
       pattern="M 0,5 C 0,2.24 2.24,0 5,0 7.76,0 10,2.24 10,5 10,7.76 7.76,10 5,10 2.24,10 0,7.76 0,5 Z"
       copytype="single_stretched"
       prop_scale="0.26458333"
       scale_y_rel="false"
       spacing="0"
       normal_offset="0"
       tang_offset="0"
       prop_units="false"
       vertical_pattern="false"
       fuse_tolerance="0" />
    <inkscape:path-effect
       effect="powerstroke"
       id="path-effect5370"
       is_visible="true"
       offset_points="0,0.13229166"
       sort_points="true"
       interpolator_type="CubicBezierJohan"
       interpolator_beta="0.2"
       start_linecap_type="zerowidth"
       linejoin_type="extrp_arc"
       miter_limit="4"
       end_linecap_type="zerowidth" />
    <inkscape:path-effect
       effect="spiro"
       id="path-effect5368"
       is_visible="true" />
    <inkscape:path-effect
       effect="powerstroke"
       id="path-effect5364"
       is_visible="true"
       offset_points="0,0.13229166"
       sort_points="true"
       interpolator_type="CubicBezierJohan"
       interpolator_beta="0.2"
       start_linecap_type="zerowidth"
       linejoin_type="extrp_arc"
       miter_limit="4"
       end_linecap_type="zerowidth" />
    <inkscape:path-effect
       effect="powerstroke"
       id="path-effect5360"
       is_visible="true"
       offset_points="0.18100737,-0.15481028"
       sort_points="true"
       interpolator_type="CubicBezierJohan"
       interpolator_beta="0.2"
       start_linecap_type="zerowidth"
       linejoin_type="extrp_arc"
       miter_limit="4"
       end_linecap_type="zerowidth" />
    <inkscape:path-effect
       effect="powerstroke"
       id="path-effect5356"
       is_visible="true"
       offset_points="0,0.13229166"
       sort_points="true"
       interpolator_type="CubicBezierJohan"
       interpolator_beta="0.2"
       start_linecap_type="zerowidth"
       linejoin_type="extrp_arc"
       miter_limit="4"
       end_linecap_type="zerowidth" />
    <inkscape:path-effect
       effect="spiro"
       id="path-effect4519"
       is_visible="true" />
    <inkscape:path-effect
       effect="powerstroke"
       id="path-effect4515"
       is_visible="true"
       offset_points="0,0.13229166"
       sort_points="true"
       interpolator_type="CubicBezierJohan"
       interpolator_beta="0.2"
       start_linecap_type="zerowidth"
       linejoin_type="extrp_arc"
       miter_limit="4"
       end_linecap_type="zerowidth" />
    <inkscape:path-effect
       effect="spiro"
       id="path-effect4519-3"
       is_visible="true" />
    <inkscape:path-effect
       effect="spiro"
       id="path-effect4519-7"
       is_visible="true" />
    <inkscape:path-effect
       effect="spiro"
       id="path-effect4519-7-3"
       is_visible="true" />
    <inkscape:path-effect
       effect="spiro"
       id="path-effect4519-6"
       is_visible="true" />
    <inkscape:path-effect
       effect="spiro"
       id="path-effect4519-9"
       is_visible="true" />
    <inkscape:path-effect
       effect="spiro"
       id="path-effect4519-6-6"
       is_visible="true" />
    <inkscape:path-effect
       effect="spiro"
       id="path-effect4519-5"
       is_visible="true" />
    <inkscape:path-effect
       effect="spiro"
       id="path-effect4519-56"
       is_visible="true" />
    <inkscape:path-effect
       effect="spiro"
       id="path-effect4519-1"
       is_visible="true" />
    <inkscape:path-effect
       effect="spiro"
       id="path-effect4519-0"
       is_visible="true" />
    <inkscape:path-effect
       effect="spiro"
       id="path-effect4519-36"
       is_visible="true" />
    <inkscape:path-effect
       effect="spiro"
       id="path-effect4519-3-6"
       is_visible="true" />
    <inkscape:path-effect
       effect="spiro"
       id="path-effect4519-3-61"
       is_visible="true" />
    <inkscape:path-effect
       effect="spiro"
       id="path-effect4519-36-7"
       is_visible="true" />
    <inkscape:path-effect
       effect="spiro"
       id="path-effect4519-36-2"
       is_visible="true" />
  </defs>
  <sodipodi:namedview
     id="base"
     pagecolor="#ffffff"
     bordercolor="#666666"
     borderopacity="1.0"
     inkscape:pageopacity="0.0"
     inkscape:pageshadow="2"
     inkscape:zoom="11.2"
     inkscape:cx="151.98409"
     inkscape:cy="898.45302"
     inkscape:document-units="mm"
     inkscape:current-layer="layer1"
     showgrid="false"
     inkscape:window-width="1489"
     inkscape:window-height="916"
     inkscape:window-x="1617"
     inkscape:window-y="32"
     inkscape:window-maximized="0"
     showguides="false" />
  <metadata
     id="metadata5">
    <rdf:RDF>
      <cc:Work
         rdf:about="">
        <dc:format>image/svg+xml</dc:format>
        <dc:type
           rdf:resource="http://purl.org/dc/dcmitype/StillImage" />
        <dc:title></dc:title>
      </cc:Work>
    </rdf:RDF>
  </metadata>
  <g
     inkscape:label="Layer 1"
     inkscape:groupmode="layer"
     id="layer1">
    <path
       style="opacity:1;fill:#ffff00;fill-opacity:1;stroke:none;stroke-width:0.5;stroke-linecap:butt;stroke-linejoin:miter;stroke-miterlimit:4;stroke-dasharray:none;stroke-dashoffset:0;stroke-opacity:1"
       d="m 34.962246,56.292237 c 1.788561,-0.0056 4.858647,0.0492 4.858647,0.0492 l 5.247427,0.483484 c 1.278836,2.56887 -1.694623,0.884444 -1.026466,2.168954 -0.213129,1.803661 -0.02693,3.055598 0.782755,4.588788 l -1.855019,2.991863 -2.098098,0.01616 -0.162496,-1.537892 -2.69421,-0.002 -0.848195,1.62 -1.542286,-0.0058 0.124857,-1.62464 -1.201393,-0.24973 c -0.166111,-3.838882 -0.380723,-1.450679 0.659244,-5.682832 l -1.59781,-0.417605 z"
       id="rect4485"
       inkscape:connector-curvature="0"
       sodipodi:nodetypes="cccccccccccccccc" />
    <path
       style="opacity:1;fill:none;fill-opacity:1;stroke:#000000;stroke-width:1;stroke-linecap:butt;stroke-linejoin:miter;stroke-miterlimit:4;stroke-dasharray:none;stroke-dashoffset:0;stroke-opacity:1"
       d="m 41.002862,56.921521 4.065458,-0.0966 c 0.311603,0.484427 0.215433,1.512196 0.02649,1.996623 l -1.713754,-0.006 0.728192,1.547505 c 0.652459,1.549418 0.617739,3.125944 0.400575,4.434188 -0.08172,0.654711 -2.247383,0.291074 -1.54023,1.777258 l -2.098098,0.01616 -0.162496,-1.537896 -2.732007,0.139741 -0.281231,1.478259 -2.071453,-0.0058 c -0.201245,-0.555942 0.723239,-1.620519 -1.076536,-1.874366 -0.902624,-2.114567 0.03854,-3.816198 0.910571,-6.206907 l -1.774174,0.747936 c -0.520957,-0.779836 0.01062,-1.665562 1.168929,-2.638553 0.37505,-0.315044 2.114046,-0.970213 3.605431,-0.802463"
       id="rect5284"
       inkscape:connector-curvature="0"
       sodipodi:nodetypes="cccccccccccccccsc" />
    <g
       id="g4608"
       transform="translate(-9.3312872,-12.992932)">
      <path
         sodipodi:nodetypes="cc"
         inkscape:connector-curvature="0"
         id="path5445-6"
         d="m 48.735304,69.718192 c 0.07936,-0.762813 -0.510651,-1.607282 0.782577,-2.614114"
         style="fill:none;fill-rule:evenodd;stroke:#000000;stroke-width:0.1;stroke-linecap:butt;stroke-linejoin:miter;stroke-miterlimit:4;stroke-dasharray:none;stroke-opacity:1" />
      <path
         sodipodi:nodetypes="cc"
         inkscape:connector-curvature="0"
         id="path5445-6-1"
         d="m 48.284287,70.102392 c 0.07936,-0.680634 -0.317866,-2.124733 0.691388,-3.081205"
         style="fill:none;fill-rule:evenodd;stroke:#000000;stroke-width:0.1;stroke-linecap:butt;stroke-linejoin:miter;stroke-miterlimit:4;stroke-dasharray:none;stroke-opacity:1" />
      <path
         sodipodi:nodetypes="cc"
         inkscape:connector-curvature="0"
         id="path5445-6-1-2"
         d="m 48.284287,70.102392 c 0.07936,-0.680634 -0.374474,-2.477098 -0.684859,-2.999257"
         style="fill:none;fill-rule:evenodd;stroke:#000000;stroke-width:0.1;stroke-linecap:butt;stroke-linejoin:miter;stroke-miterlimit:4;stroke-dasharray:none;stroke-opacity:1" />
      <path
         sodipodi:nodetypes="cc"
         inkscape:connector-curvature="0"
         id="path5445"
         d="m 48.735304,69.718192 c 0.382574,-0.598031 0.786158,-1.180654 2.093043,-1.100856"
         style="fill:none;fill-rule:evenodd;stroke:#000000;stroke-width:0.1;stroke-linecap:butt;stroke-linejoin:miter;stroke-miterlimit:4;stroke-dasharray:none;stroke-opacity:1" />
      <path
         sodipodi:nodetypes="cc"
         inkscape:connector-curvature="0"
         id="path5445-3"
         d="m 48.735304,69.718192 c 0.382574,-0.598031 0.231644,-2.032453 1.538529,-1.952655"
         style="fill:none;fill-rule:evenodd;stroke:#000000;stroke-width:0.1;stroke-linecap:butt;stroke-linejoin:miter;stroke-miterlimit:4;stroke-dasharray:none;stroke-opacity:1" />
      <path
         sodipodi:nodetypes="cc"
         inkscape:connector-curvature="0"
         id="path5445-6-1-9"
         d="m 48.494948,70.15093 c 0.07936,-0.680634 -0.568431,-2.091324 -1.112681,-2.262692"
         style="fill:none;fill-rule:evenodd;stroke:#000000;stroke-width:0.1;stroke-linecap:butt;stroke-linejoin:miter;stroke-miterlimit:4;stroke-dasharray:none;stroke-opacity:1" />
    </g>
    <g
       id="g4608-2"
       transform="rotate(165,49.839233,60.996531)">
      <path
         sodipodi:nodetypes="cc"
         inkscape:connector-curvature="0"
         id="path5445-6-7"
         d="m 58.311379,68.085944 c 0.07936,-0.762813 -0.510651,-1.607282 0.782577,-2.614114"
         style="fill:none;fill-rule:evenodd;stroke:#000000;stroke-width:0.1;stroke-linecap:butt;stroke-linejoin:miter;stroke-miterlimit:4;stroke-dasharray:none;stroke-opacity:1" />
      <path
         sodipodi:nodetypes="cc"
         inkscape:connector-curvature="0"
         id="path5445-6-1-0"
         d="m 57.463055,67.792748 c 0.07936,-0.680634 -0.317866,-2.124733 0.691388,-3.081205"
         style="fill:none;fill-rule:evenodd;stroke:#000000;stroke-width:0.1;stroke-linecap:butt;stroke-linejoin:miter;stroke-miterlimit:4;stroke-dasharray:none;stroke-opacity:1" />
      <path
         sodipodi:nodetypes="cc"
         inkscape:connector-curvature="0"
         id="path5445-6-1-2-9"
         d="m 60.176826,68.617728 c 1.087852,-0.337039 1.428631,-2.36081 1.118246,-2.882969"
         style="fill:none;fill-rule:evenodd;stroke:#000000;stroke-width:0.1;stroke-linecap:butt;stroke-linejoin:miter;stroke-miterlimit:4;stroke-dasharray:none;stroke-opacity:1" />
      <path
         sodipodi:nodetypes="cc"
         inkscape:connector-curvature="0"
         id="path5445-36"
         d="m 59.510638,68.874019 c 0.597675,-0.340461 1.794625,0.02692 2.093043,-1.100856"
         style="fill:none;fill-rule:evenodd;stroke:#000000;stroke-width:0.1;stroke-linecap:butt;stroke-linejoin:miter;stroke-miterlimit:4;stroke-dasharray:none;stroke-opacity:1" />
      <path
         sodipodi:nodetypes="cc"
         inkscape:connector-curvature="0"
         id="path5445-3-0"
         d="m 59.358516,68.407007 c 0.740485,-0.267083 1.711849,-0.663756 1.538529,-1.952655"
         style="fill:none;fill-rule:evenodd;stroke:#000000;stroke-width:0.1;stroke-linecap:butt;stroke-linejoin:miter;stroke-miterlimit:4;stroke-dasharray:none;stroke-opacity:1" />
      <path
         sodipodi:nodetypes="cc"
         inkscape:connector-curvature="0"
         id="path5445-6-1-9-6"
         d="m 59.358516,68.407007 c 0.07936,-0.680634 0.912377,-2.232594 0.368127,-2.403962"
         style="fill:none;fill-rule:evenodd;stroke:#000000;stroke-width:0.1;stroke-linecap:butt;stroke-linejoin:miter;stroke-miterlimit:4;stroke-dasharray:none;stroke-opacity:1" />
    </g>
  </g>
</svg>
